EESchema Schematic File Version 4
EELAYER 30 0
EELAYER END
$Descr A4 11693 8268
encoding utf-8
Sheet 1 1
Title ""
Date ""
Rev ""
Comp ""
Comment1 ""
Comment2 ""
Comment3 ""
Comment4 ""
$EndDescr
$Comp
L LT8471:LT8471EFETRPBF U?
U 1 1 60B7A324
P 4050 3050
F 0 "U?" H 4650 3315 50  0000 C CNN
F 1 "LT8471EFETRPBF" H 4650 3224 50  0000 C CNN
F 2 "Linear_Technology-LT8471EFETRPBF-*" H 4050 3450 50  0001 L CNN
F 3 "http://cds.linear.com/docs/en/datasheet/8471fc.pdf" H 4050 3550 50  0001 L CNN
F 4 "Manufacturer URL" H 4050 3650 50  0001 L CNN "Component Link 1 Description"
F 5 "http://www.linear.com/" H 4050 3750 50  0001 L CNN "Component Link 1 URL"
F 6 "Package Specification" H 4050 3850 50  0001 L CNN "Component Link 3 Description"
F 7 "http://cds.linear.com/docs/en/packaging/05081663_K_FE20(CB).pdf" H 4050 3950 50  0001 L CNN "Component Link 3 URL"
F 8 "Rev. C" H 4050 4050 50  0001 L CNN "Datasheet Version"
F 9 "50 V" H 4050 4150 50  0001 L CNN "Input Voltage Max"
F 10 "2.6 V" H 4050 4250 50  0001 L CNN "Input Voltage Min"
F 11 "Surface Mount" H 4050 4350 50  0001 L CNN "Mounting Technology"
F 12 "20-Pin Plastic Thin Shrink Small Outline Package, Body 6.5 x 4.4 mm, Pitch 0.65 mm" H 4050 4450 50  0001 L CNN "Package Description"
F 13 "Rev. K, 04/2014" H 4050 4550 50  0001 L CNN "Package Version"
F 14 "Tape and Reel" H 4050 4650 50  0001 L CNN "Packing"
F 15 "125 degC" H 4050 4750 50  0001 L CNN "Temperature Max"
F 16 "-40 degC" H 4050 4850 50  0001 L CNN "Temperature Min"
F 17 "IC" H 4050 4950 50  0001 L CNN "category"
F 18 "15159446" H 4050 5050 50  0001 L CNN "ciiva ids"
F 19 "59e6acab8c2fcf35" H 4050 5150 50  0001 L CNN "library id"
F 20 "Linear Technology" H 4050 5250 50  0001 L CNN "manufacturer"
F 21 "1442975504" H 4050 5350 50  0001 L CNN "release date"
F 22 "Yes" H 4050 5450 50  0001 L CNN "rohs"
F 23 "5D8B51E9-2A60-4FB5-B036-C69C66E65E12" H 4050 5550 50  0001 L CNN "vault revision"
F 24 "yes" H 4050 5650 50  0001 L CNN "imported"
	1    4050 3050
	1    0    0    -1  
$EndComp
$Comp
L pspice:CAP C4
U 1 1 60B7E23B
P 3500 3150
F 0 "C4" V 3185 3150 50  0000 C CNN
F 1 "2.2u" V 3276 3150 50  0000 C CNN
F 2 "" H 3500 3150 50  0001 C CNN
F 3 "~" H 3500 3150 50  0001 C CNN
	1    3500 3150
	0    1    1    0   
$EndComp
Wire Wire Line
	3050 3150 3250 3150
Wire Wire Line
	3750 3150 3900 3150
Wire Wire Line
	3900 3150 3900 3050
Wire Wire Line
	3900 3050 4150 3050
Connection ~ 3900 3150
Wire Wire Line
	3900 3150 4150 3150
Wire Wire Line
	3900 3150 3900 3250
Wire Wire Line
	3900 3250 4150 3250
$Comp
L power:GND #PWR?
U 1 1 60B80B45
P 3050 3150
F 0 "#PWR?" H 3050 2900 50  0001 C CNN
F 1 "GND" H 3055 2977 50  0000 C CNN
F 2 "" H 3050 3150 50  0001 C CNN
F 3 "" H 3050 3150 50  0001 C CNN
	1    3050 3150
	1    0    0    -1  
$EndComp
$Comp
L pspice:INDUCTOR L3
U 1 1 60B81575
P 3050 3800
F 0 "L3" H 3050 4015 50  0000 C CNN
F 1 "15u" H 3050 3924 50  0000 C CNN
F 2 "" H 3050 3800 50  0001 C CNN
F 3 "~" H 3050 3800 50  0001 C CNN
	1    3050 3800
	1    0    0    -1  
$EndComp
$Comp
L pspice:CAP C6
U 1 1 60B84073
P 3850 3550
F 0 "C6" V 3535 3550 50  0000 C CNN
F 1 "2.2u" V 3626 3550 50  0000 C CNN
F 2 "" H 3850 3550 50  0001 C CNN
F 3 "~" H 3850 3550 50  0001 C CNN
	1    3850 3550
	0    1    1    0   
$EndComp
$Comp
L pspice:CAP C5
U 1 1 60B896AD
P 3450 3450
F 0 "C5" V 3135 3450 50  0000 C CNN
F 1 "2.2u" V 3226 3450 50  0000 C CNN
F 2 "" H 3450 3450 50  0001 C CNN
F 3 "~" H 3450 3450 50  0001 C CNN
	1    3450 3450
	0    1    1    0   
$EndComp
Wire Wire Line
	4150 3450 4100 3450
Wire Wire Line
	3300 3800 4000 3800
Wire Wire Line
	4000 3800 4000 3650
Wire Wire Line
	4000 3650 4150 3650
$Comp
L power:GND #PWR?
U 1 1 60B8B1AA
P 3600 3550
F 0 "#PWR?" H 3600 3300 50  0001 C CNN
F 1 "GND" H 3605 3377 50  0000 C CNN
F 2 "" H 3600 3550 50  0001 C CNN
F 3 "" H 3600 3550 50  0001 C CNN
	1    3600 3550
	1    0    0    -1  
$EndComp
$Comp
L power:GND #PWR?
U 1 1 60B8B881
P 3200 3450
F 0 "#PWR?" H 3200 3200 50  0001 C CNN
F 1 "GND" H 3205 3277 50  0000 C CNN
F 2 "" H 3200 3450 50  0001 C CNN
F 3 "" H 3200 3450 50  0001 C CNN
	1    3200 3450
	1    0    0    -1  
$EndComp
$Comp
L Device:R_Small_US R4
U 1 1 60B8C941
P 3800 3850
F 0 "R4" V 3595 3850 50  0000 C CNN
F 1 "499K" V 3686 3850 50  0000 C CNN
F 2 "" H 3800 3850 50  0001 C CNN
F 3 "~" H 3800 3850 50  0001 C CNN
	1    3800 3850
	0    1    1    0   
$EndComp
Wire Wire Line
	3900 3850 4150 3850
Wire Wire Line
	2600 3850 3700 3850
$Comp
L Device:R_Small_US R5
U 1 1 60B8F5AB
P 3950 4050
F 0 "R5" V 3745 4050 50  0000 C CNN
F 1 "100K" V 3836 4050 50  0000 C CNN
F 2 "" H 3950 4050 50  0001 C CNN
F 3 "~" H 3950 4050 50  0001 C CNN
	1    3950 4050
	0    1    1    0   
$EndComp
$Comp
L Device:R_Small_US R6
U 1 1 60B900E0
P 3550 4150
F 0 "R6" V 3345 4150 50  0000 C CNN
F 1 "100K" V 3436 4150 50  0000 C CNN
F 2 "" H 3550 4150 50  0001 C CNN
F 3 "~" H 3550 4150 50  0001 C CNN
	1    3550 4150
	0    1    1    0   
$EndComp
Wire Wire Line
	4050 4050 4150 4050
Wire Wire Line
	4150 4150 3650 4150
Wire Wire Line
	2600 4150 3450 4150
Wire Wire Line
	2600 4050 3850 4050
$Comp
L pspice:CAP C3
U 1 1 60B92B25
P 3750 4450
F 0 "C3" V 3435 4450 50  0000 C CNN
F 1 "0.01u" V 3526 4450 50  0000 C CNN
F 2 "" H 3750 4450 50  0001 C CNN
F 3 "~" H 3750 4450 50  0001 C CNN
	1    3750 4450
	0    1    1    0   
$EndComp
$Comp
L pspice:CAP C1
U 1 1 60B9368D
P 3200 4350
F 0 "C1" V 2885 4350 50  0000 C CNN
F 1 "0.01u" V 2976 4350 50  0000 C CNN
F 2 "" H 3200 4350 50  0001 C CNN
F 3 "~" H 3200 4350 50  0001 C CNN
	1    3200 4350
	0    1    1    0   
$EndComp
Wire Wire Line
	4150 4350 3450 4350
Wire Wire Line
	3450 4450 3500 4450
Wire Wire Line
	4000 4450 4150 4450
$Comp
L power:GND #PWR?
U 1 1 60B95142
P 3450 4450
F 0 "#PWR?" H 3450 4200 50  0001 C CNN
F 1 "GND" H 3455 4277 50  0000 C CNN
F 2 "" H 3450 4450 50  0001 C CNN
F 3 "" H 3450 4450 50  0001 C CNN
	1    3450 4450
	1    0    0    -1  
$EndComp
$Comp
L power:GND #PWR?
U 1 1 60B95AD8
P 2950 4350
F 0 "#PWR?" H 2950 4100 50  0001 C CNN
F 1 "GND" H 2955 4177 50  0000 C CNN
F 2 "" H 2950 4350 50  0001 C CNN
F 3 "" H 2950 4350 50  0001 C CNN
	1    2950 4350
	1    0    0    -1  
$EndComp
Wire Wire Line
	2600 2200 4100 2200
Wire Wire Line
	2600 2200 2600 3800
Connection ~ 2600 3850
Wire Wire Line
	2600 3850 2600 4050
Connection ~ 2600 4050
Wire Wire Line
	2600 4050 2600 4150
Wire Wire Line
	2600 3800 2800 3800
Connection ~ 2600 3800
Wire Wire Line
	2600 3800 2600 3850
$Comp
L pspice:CAP C8
U 1 1 60B97E83
P 2000 2500
F 0 "C8" H 2178 2546 50  0000 L CNN
F 1 "47u" H 2178 2455 50  0000 L CNN
F 2 "" H 2000 2500 50  0001 C CNN
F 3 "~" H 2000 2500 50  0001 C CNN
	1    2000 2500
	1    0    0    -1  
$EndComp
$Comp
L Device:Battery V1
U 1 1 60B99AF7
P 1250 2450
F 0 "V1" H 1358 2496 50  0000 L CNN
F 1 "12V" H 1358 2405 50  0000 L CNN
F 2 "" V 1250 2510 50  0001 C CNN
F 3 "~" V 1250 2510 50  0001 C CNN
	1    1250 2450
	1    0    0    -1  
$EndComp
Wire Wire Line
	2000 2250 2000 2200
Wire Wire Line
	2000 2200 2600 2200
Connection ~ 2600 2200
Wire Wire Line
	2000 2200 1250 2200
Wire Wire Line
	1250 2200 1250 2250
Connection ~ 2000 2200
Wire Wire Line
	1250 2650 1250 2850
Wire Wire Line
	1250 2850 1650 2850
Wire Wire Line
	2000 2850 2000 2750
$Comp
L power:GND #PWR?
U 1 1 60B9D249
P 1650 3000
F 0 "#PWR?" H 1650 2750 50  0001 C CNN
F 1 "GND" H 1655 2827 50  0000 C CNN
F 2 "" H 1650 3000 50  0001 C CNN
F 3 "" H 1650 3000 50  0001 C CNN
	1    1650 3000
	1    0    0    -1  
$EndComp
Wire Wire Line
	1650 3000 1650 2850
Connection ~ 1650 2850
Wire Wire Line
	1650 2850 2000 2850
Wire Wire Line
	4100 3450 4100 2200
Connection ~ 4100 3450
$Comp
L Device:D_Schottky D2
U 1 1 60BA21DE
P 5700 3200
F 0 "D2" V 5654 3279 50  0000 L CNN
F 1 "MBRS340" V 5745 3279 50  0000 L CNN
F 2 "" H 5700 3200 50  0001 C CNN
F 3 "~" H 5700 3200 50  0001 C CNN
	1    5700 3200
	0    1    1    0   
$EndComp
Wire Wire Line
	5150 3050 5700 3050
$Comp
L power:GND #PWR?
U 1 1 60BA3C16
P 5700 3350
F 0 "#PWR?" H 5700 3100 50  0001 C CNN
F 1 "GND" H 5705 3177 50  0000 C CNN
F 2 "" H 5700 3350 50  0001 C CNN
F 3 "" H 5700 3350 50  0001 C CNN
	1    5700 3350
	1    0    0    -1  
$EndComp
$Comp
L pspice:INDUCTOR L2
U 1 1 60BA454C
P 6300 3050
F 0 "L2" H 6300 3265 50  0000 C CNN
F 1 "6.8u" H 6300 3174 50  0000 C CNN
F 2 "" H 6300 3050 50  0001 C CNN
F 3 "~" H 6300 3050 50  0001 C CNN
	1    6300 3050
	1    0    0    -1  
$EndComp
$Comp
L Device:R_Small_US R8
U 1 1 60BA4F45
P 6750 3200
F 0 "R8" H 6818 3246 50  0000 L CNN
F 1 "316K" H 6818 3155 50  0000 L CNN
F 2 "" H 6750 3200 50  0001 C CNN
F 3 "~" H 6750 3200 50  0001 C CNN
	1    6750 3200
	1    0    0    -1  
$EndComp
$Comp
L Device:R_Small_US R7
U 1 1 60BA5A5A
P 6750 3550
F 0 "R7" H 6818 3596 50  0000 L CNN
F 1 "59K" H 6818 3505 50  0000 L CNN
F 2 "" H 6750 3550 50  0001 C CNN
F 3 "~" H 6750 3550 50  0001 C CNN
	1    6750 3550
	1    0    0    -1  
$EndComp
$Comp
L Device:R_Small_US Rload1
U 1 1 60BA5D77
P 8050 3200
F 0 "Rload1" H 8118 3246 50  0000 L CNN
F 1 "3.6" H 8118 3155 50  0000 L CNN
F 2 "" H 8050 3200 50  0001 C CNN
F 3 "~" H 8050 3200 50  0001 C CNN
	1    8050 3200
	1    0    0    -1  
$EndComp
Wire Wire Line
	5700 3050 6050 3050
Connection ~ 5700 3050
Wire Wire Line
	8050 3050 8050 3100
Wire Wire Line
	7600 3050 7600 3100
Wire Wire Line
	6550 3050 6750 3050
Connection ~ 8050 3050
Wire Wire Line
	8050 3050 8200 3050
Connection ~ 7600 3050
Wire Wire Line
	7600 3050 8050 3050
Wire Wire Line
	6750 3050 6750 3100
Connection ~ 6750 3050
Wire Wire Line
	6750 3050 7600 3050
Wire Wire Line
	6750 3300 6750 3400
Wire Wire Line
	6750 3400 5850 3400
Wire Wire Line
	5850 3400 5850 3300
Wire Wire Line
	5850 3300 5350 3300
Wire Wire Line
	5350 3300 5350 3150
Wire Wire Line
	5350 3150 5150 3150
Connection ~ 6750 3400
Wire Wire Line
	6750 3400 6750 3450
$Comp
L power:GND #PWR?
U 1 1 60BAD318
P 6750 3650
F 0 "#PWR?" H 6750 3400 50  0001 C CNN
F 1 "GND" H 6755 3477 50  0000 C CNN
F 2 "" H 6750 3650 50  0001 C CNN
F 3 "" H 6750 3650 50  0001 C CNN
	1    6750 3650
	1    0    0    -1  
$EndComp
$Comp
L power:GND #PWR?
U 1 1 60BADA02
P 7600 3600
F 0 "#PWR?" H 7600 3350 50  0001 C CNN
F 1 "GND" H 7605 3427 50  0000 C CNN
F 2 "" H 7600 3600 50  0001 C CNN
F 3 "" H 7600 3600 50  0001 C CNN
	1    7600 3600
	1    0    0    -1  
$EndComp
$Comp
L power:GND #PWR?
U 1 1 60BAE10E
P 8050 3600
F 0 "#PWR?" H 8050 3350 50  0001 C CNN
F 1 "GND" H 8055 3427 50  0000 C CNN
F 2 "" H 8050 3600 50  0001 C CNN
F 3 "" H 8050 3600 50  0001 C CNN
	1    8050 3600
	1    0    0    -1  
$EndComp
Wire Wire Line
	8050 3600 8050 3300
Wire Wire Line
	4100 3550 4100 3450
Wire Wire Line
	3700 3450 4100 3450
Wire Wire Line
	4150 3550 4100 3550
Connection ~ 4100 3550
$Comp
L Device:D_Schottky D1
U 1 1 60BB4F1F
P 6150 4000
F 0 "D1" H 6150 4216 50  0000 C CNN
F 1 "MBRS340" H 6150 4125 50  0000 C CNN
F 2 "" H 6150 4000 50  0001 C CNN
F 3 "~" H 6150 4000 50  0001 C CNN
	1    6150 4000
	1    0    0    -1  
$EndComp
$Comp
L Device:R_Small_US R3
U 1 1 60BB812A
P 6750 4150
F 0 "R3" H 6818 4196 50  0000 L CNN
F 1 "316K" H 6818 4105 50  0000 L CNN
F 2 "" H 6750 4150 50  0001 C CNN
F 3 "~" H 6750 4150 50  0001 C CNN
	1    6750 4150
	1    0    0    -1  
$EndComp
$Comp
L Device:R_Small_US R2
U 1 1 60BB8134
P 6750 4500
F 0 "R2" H 6818 4546 50  0000 L CNN
F 1 "59K" H 6818 4455 50  0000 L CNN
F 2 "" H 6750 4500 50  0001 C CNN
F 3 "~" H 6750 4500 50  0001 C CNN
	1    6750 4500
	1    0    0    -1  
$EndComp
$Comp
L Device:R_Small_US Rload2
U 1 1 60BB813E
P 8050 4150
F 0 "Rload2" H 8118 4196 50  0000 L CNN
F 1 "6.25" H 8118 4105 50  0000 L CNN
F 2 "" H 8050 4150 50  0001 C CNN
F 3 "~" H 8050 4150 50  0001 C CNN
	1    8050 4150
	1    0    0    -1  
$EndComp
$Comp
L pspice:CAP C2
U 1 1 60BB8148
P 7600 4300
F 0 "C2" H 7778 4346 50  0000 L CNN
F 1 "47u" H 7778 4255 50  0000 L CNN
F 2 "" H 7600 4300 50  0001 C CNN
F 3 "~" H 7600 4300 50  0001 C CNN
	1    7600 4300
	1    0    0    -1  
$EndComp
Wire Wire Line
	8050 4000 8050 4050
Wire Wire Line
	7600 4000 7600 4050
Connection ~ 8050 4000
Wire Wire Line
	8050 4000 8200 4000
Connection ~ 7600 4000
Wire Wire Line
	7600 4000 8050 4000
Wire Wire Line
	6750 4000 6750 4050
Connection ~ 6750 4000
Wire Wire Line
	6750 4000 7600 4000
$Comp
L power:GND #PWR?
U 1 1 60BB8160
P 6750 4600
F 0 "#PWR?" H 6750 4350 50  0001 C CNN
F 1 "GND" H 6755 4427 50  0000 C CNN
F 2 "" H 6750 4600 50  0001 C CNN
F 3 "" H 6750 4600 50  0001 C CNN
	1    6750 4600
	1    0    0    -1  
$EndComp
$Comp
L power:GND #PWR?
U 1 1 60BB816A
P 7600 4550
F 0 "#PWR?" H 7600 4300 50  0001 C CNN
F 1 "GND" H 7605 4377 50  0000 C CNN
F 2 "" H 7600 4550 50  0001 C CNN
F 3 "" H 7600 4550 50  0001 C CNN
	1    7600 4550
	1    0    0    -1  
$EndComp
$Comp
L power:GND #PWR?
U 1 1 60BB8174
P 8050 4550
F 0 "#PWR?" H 8050 4300 50  0001 C CNN
F 1 "GND" H 8055 4377 50  0000 C CNN
F 2 "" H 8050 4550 50  0001 C CNN
F 3 "" H 8050 4550 50  0001 C CNN
	1    8050 4550
	1    0    0    -1  
$EndComp
Wire Wire Line
	8050 4550 8050 4250
Wire Wire Line
	6750 4250 6750 4300
Connection ~ 6750 4300
Wire Wire Line
	6750 4300 6750 4400
Wire Wire Line
	5650 4300 5650 3750
Wire Wire Line
	5650 3750 5450 3750
Wire Wire Line
	5450 3750 5450 3450
Wire Wire Line
	5450 3450 5150 3450
Wire Wire Line
	5650 4300 6750 4300
Wire Wire Line
	6300 4000 6750 4000
Wire Wire Line
	6000 4000 5850 4000
Wire Wire Line
	5850 3650 5550 3650
Wire Wire Line
	5550 3650 5550 3350
Wire Wire Line
	5550 3350 5150 3350
$Comp
L pspice:INDUCTOR L1
U 1 1 60BC87C7
P 5850 4300
F 0 "L1" V 5804 4378 50  0000 L CNN
F 1 "10u" V 5895 4378 50  0000 L CNN
F 2 "" H 5850 4300 50  0001 C CNN
F 3 "~" H 5850 4300 50  0001 C CNN
	1    5850 4300
	0    1    1    0   
$EndComp
Wire Wire Line
	5850 3650 5850 4000
Connection ~ 5850 4000
Wire Wire Line
	5850 4000 5850 4050
Wire Wire Line
	5850 4600 5850 4550
$Comp
L power:GND #PWR?
U 1 1 60BCD0B5
P 5850 4600
F 0 "#PWR?" H 5850 4350 50  0001 C CNN
F 1 "GND" H 5855 4427 50  0000 C CNN
F 2 "" H 5850 4600 50  0001 C CNN
F 3 "" H 5850 4600 50  0001 C CNN
	1    5850 4600
	1    0    0    -1  
$EndComp
Text GLabel 8200 3050 2    50   Output ~ 0
Vout1
Text GLabel 8200 4000 2    50   Output ~ 0
Vout2
$Comp
L pspice:CAP C7
U 1 1 60BA71B6
P 7600 3350
F 0 "C7" H 7778 3396 50  0000 L CNN
F 1 "47u" H 7778 3305 50  0000 L CNN
F 2 "" H 7600 3350 50  0001 C CNN
F 3 "~" H 7600 3350 50  0001 C CNN
	1    7600 3350
	1    0    0    -1  
$EndComp
$Comp
L Device:R_Small_US R1
U 1 1 60BD1CED
P 5450 4050
F 0 "R1" H 5518 4096 50  0000 L CNN
F 1 "187K" H 5518 4005 50  0000 L CNN
F 2 "" H 5450 4050 50  0001 C CNN
F 3 "~" H 5450 4050 50  0001 C CNN
	1    5450 4050
	1    0    0    -1  
$EndComp
Wire Wire Line
	5150 3950 5450 3950
Wire Wire Line
	5150 4150 5250 4150
Wire Wire Line
	5250 4450 5150 4450
Wire Wire Line
	5250 4150 5250 4250
Connection ~ 5250 4450
Wire Wire Line
	5250 4450 5250 4600
Wire Wire Line
	5150 4350 5250 4350
Connection ~ 5250 4350
Wire Wire Line
	5250 4350 5250 4450
Wire Wire Line
	5150 4250 5250 4250
Connection ~ 5250 4250
Wire Wire Line
	5250 4250 5250 4350
Wire Wire Line
	5150 3650 5250 3650
Wire Wire Line
	5250 3650 5250 4150
Connection ~ 5250 4150
$Comp
L power:GND #PWR?
U 1 1 60BE03B6
P 5250 4600
F 0 "#PWR?" H 5250 4350 50  0001 C CNN
F 1 "GND" H 5255 4427 50  0000 C CNN
F 2 "" H 5250 4600 50  0001 C CNN
F 3 "" H 5250 4600 50  0001 C CNN
	1    5250 4600
	1    0    0    -1  
$EndComp
$Comp
L power:GND #PWR?
U 1 1 60BE0B01
P 5450 4600
F 0 "#PWR?" H 5450 4350 50  0001 C CNN
F 1 "GND" H 5455 4427 50  0000 C CNN
F 2 "" H 5450 4600 50  0001 C CNN
F 3 "" H 5450 4600 50  0001 C CNN
	1    5450 4600
	1    0    0    -1  
$EndComp
Wire Wire Line
	5450 4150 5450 4600
Text Notes 7350 7500 0    50   ~ 10
Power Supply Schematic (RSXERI002)
Text Notes 7200 6950 0    157  ~ 31
POWER SUPPLY - Micro PiHat
$EndSCHEMATC
